\beamer@endinputifotherversion {3.32pt}
\headcommand {\slideentry {0}{0}{1}{1/1}{}{0}}
\headcommand {\beamer@framepages {1}{1}}
\headcommand {\sectionentry {1}{Introduction}{2}{Introduction}{0}}
\headcommand {\beamer@sectionpages {1}{1}}
\headcommand {\beamer@subsectionpages {1}{1}}
\headcommand {\slideentry {1}{0}{2}{2/2}{}{0}}
\headcommand {\beamer@framepages {2}{2}}
\headcommand {\slideentry {1}{0}{3}{3/3}{}{0}}
\headcommand {\beamer@framepages {3}{3}}
\headcommand {\sectionentry {2}{Context}{4}{Context}{0}}
\headcommand {\beamer@sectionpages {2}{3}}
\headcommand {\beamer@subsectionpages {2}{3}}
\headcommand {\slideentry {2}{0}{4}{4/4}{}{0}}
\headcommand {\beamer@framepages {4}{4}}
\headcommand {\beamer@subsectionentry {0}{2}{1}{5}{Industrial Control Systems (ICS)}}\headcommand {\beamer@subsectionpages {4}{4}}
\headcommand {\slideentry {2}{1}{1}{5/5}{Industrial Control Systems (ICS)}{0}}
\headcommand {\beamer@framepages {5}{5}}
\headcommand {\slideentry {2}{1}{2}{6/6}{Industrial Control Systems (ICS)}{0}}
\headcommand {\beamer@framepages {6}{6}}
\headcommand {\slideentry {2}{1}{3}{7/7}{Industrial Control Systems (ICS)}{0}}
\headcommand {\beamer@framepages {7}{7}}
\headcommand {\beamer@subsectionentry {0}{2}{2}{8}{Intrusion Detection Systems (IDS)}}\headcommand {\beamer@subsectionpages {5}{7}}
\headcommand {\slideentry {2}{2}{1}{8/8}{Intrusion Detection Systems (IDS)}{0}}
\headcommand {\beamer@framepages {8}{8}}
\headcommand {\beamer@subsectionentry {0}{2}{3}{9}{Historical Attacks}}\headcommand {\beamer@subsectionpages {8}{8}}
\headcommand {\slideentry {2}{3}{1}{9/9}{Historical Attacks}{0}}
\headcommand {\beamer@framepages {9}{9}}
\headcommand {\sectionentry {3}{Methodology}{10}{Methodology}{0}}
\headcommand {\beamer@sectionpages {4}{9}}
\headcommand {\beamer@subsectionpages {9}{9}}
\headcommand {\slideentry {3}{0}{2}{10/10}{}{0}}
\headcommand {\beamer@framepages {10}{10}}
\headcommand {\slideentry {3}{0}{3}{11/11}{}{0}}
\headcommand {\beamer@framepages {11}{11}}
\headcommand {\beamer@subsectionentry {0}{3}{1}{12}{Simulation}}\headcommand {\beamer@subsectionpages {10}{11}}
\headcommand {\slideentry {3}{1}{1}{12/12}{Simulation}{0}}
\headcommand {\beamer@framepages {12}{12}}
\headcommand {\slideentry {3}{1}{2}{13/13}{Simulation}{0}}
\headcommand {\beamer@framepages {13}{13}}
\headcommand {\beamer@subsectionentry {0}{3}{2}{14}{Our IDS}}\headcommand {\beamer@subsectionpages {12}{13}}
\headcommand {\slideentry {3}{2}{1}{14/14}{Our IDS}{0}}
\headcommand {\beamer@framepages {14}{14}}
\headcommand {\slideentry {3}{2}{2}{15/15}{Our IDS}{0}}
\headcommand {\beamer@framepages {15}{15}}
\headcommand {\beamer@subsectionentry {0}{3}{3}{16}{Attacks}}\headcommand {\beamer@subsectionpages {14}{15}}
\headcommand {\slideentry {3}{3}{1}{16/16}{Attacks}{0}}
\headcommand {\beamer@framepages {16}{16}}
\headcommand {\slideentry {3}{3}{2}{17/17}{Attacks}{0}}
\headcommand {\beamer@framepages {17}{17}}
\headcommand {\slideentry {3}{3}{3}{18/18}{Attacks}{0}}
\headcommand {\beamer@framepages {18}{18}}
\headcommand {\slideentry {3}{3}{4}{19/19}{Attacks}{0}}
\headcommand {\beamer@framepages {19}{19}}
\headcommand {\sectionentry {4}{Results}{20}{Results}{0}}
\headcommand {\beamer@sectionpages {10}{19}}
\headcommand {\beamer@subsectionpages {16}{19}}
\headcommand {\slideentry {4}{0}{5}{20/20}{}{0}}
\headcommand {\beamer@framepages {20}{20}}
\headcommand {\slideentry {4}{0}{6}{21/21}{}{0}}
\headcommand {\beamer@framepages {21}{21}}
\headcommand {\slideentry {4}{0}{7}{22/22}{}{0}}
\headcommand {\beamer@framepages {22}{22}}
\headcommand {\slideentry {4}{0}{8}{23/23}{}{0}}
\headcommand {\beamer@framepages {23}{23}}
\headcommand {\slideentry {4}{0}{9}{24/24}{}{0}}
\headcommand {\beamer@framepages {24}{24}}
\headcommand {\slideentry {4}{0}{10}{25/25}{}{0}}
\headcommand {\beamer@framepages {25}{25}}
\headcommand {\slideentry {4}{0}{11}{26/26}{}{0}}
\headcommand {\beamer@framepages {26}{26}}
\headcommand {\slideentry {4}{0}{12}{27/27}{}{0}}
\headcommand {\beamer@framepages {27}{27}}
\headcommand {\slideentry {4}{0}{13}{28/28}{}{0}}
\headcommand {\beamer@framepages {28}{28}}
\headcommand {\sectionentry {5}{Questions}{29}{Questions}{0}}
\headcommand {\beamer@sectionpages {20}{28}}
\headcommand {\beamer@subsectionpages {20}{28}}
\headcommand {\slideentry {5}{0}{14}{29/29}{}{0}}
\headcommand {\beamer@framepages {29}{29}}
\headcommand {\slideentry {5}{0}{15}{30/30}{}{0}}
\headcommand {\beamer@framepages {30}{30}}
\headcommand {\beamer@partpages {1}{30}}
\headcommand {\beamer@subsectionpages {29}{30}}
\headcommand {\beamer@sectionpages {29}{30}}
\headcommand {\beamer@documentpages {30}}
\headcommand {\def \inserttotalframenumber {30}}
