0.898,499,128,1,ok,169,175,22
0.942,499,128,1,ok,163,165,22
0.870,499,128,1,ok,184,178,25
0.856,499,128,1,ok,281,275,37
0.864,499,128,1,ok,170,226,25
0.876,499,128,1,ok,165,165,22
0.924,499,128,1,ok,169,160,23
0.842,499,128,1,ok,169,161,22
0.910,499,128,1,ok,165,165,21
0.862,499,128,1,ok,186,178,25
0.906,499,128,1,ok,194,185,26
0.887,1000,256,0,ok,840,858,83
0.749,1000,512,0,ok,630,513,75
0.868,1000,256,0,ok,342,324,44
0.844,1000,256,0,ok,342,335,44
0.857,1000,256,0,ok,589,566,78
0.865,1000,256,0,ok,371,370,48
0.887,1000,256,0,ok,335,334,44
0.899,1000,256,0,ok,371,366,48
0.905,1000,256,0,ok,562,563,70
0.897,1000,256,0,ok,338,324,43
0.938,1000,256,0,ok,558,558,69
0.898,1000,256,0,ok,368,373,47
0.852,1000,256,0,ok,344,351,48
0.935,1000,256,0,ok,396,334,42
0.909,1000,256,0,ok,378,371,47
0.903,1000,256,0,ok,370,370,48
0.857,1000,256,0,ok,381,361,49
0.857,1000,256,0,ok,380,364,49
0.861,1000,256,0,ok,345,328,43
0.878,1000,256,0,ok,597,539,72
0.887,1000,256,0,ok,340,324,45
0.844,1000,256,0,ok,374,371,49
0.787,14661,8192,339,ok,7158,5432,1224
0.811,14661,8192,339,ok,6861,5470,1182
0.833,14661,8192,339,ok,7124,5295,1213
0.880,14661,4096,339,ok,5923,6682,1171
0.810,14661,8192,339,ok,7646,5414,1233
0.796,14661,8192,339,ok,7040,6168,1220
0.769,14661,8192,339,ok,7257,5648,1246
0.839,14661,8192,339,ok,6586,5431,1216
0.774,14661,8192,339,ok,7613,5584,1255
0.899,14661,4096,339,ok,5492,6919,1160
0.808,14661,8192,339,ok,7307,5402,1172
