0.850,499,128,1,ok,168,161,22
0.920,499,128,1,ok,170,159,23
0.908,499,128,1,ok,186,186,26
0.878,499,128,1,ok,182,185,22
0.866,499,128,1,ok,183,178,24
0.858,499,128,1,ok,191,177,24
0.870,499,128,1,ok,278,273,36
0.882,499,128,1,ok,183,185,25
0.920,499,128,1,ok,183,181,23
0.908,499,128,1,ok,185,177,25
0.882,499,128,1,ok,279,269,36
0.828,1000,256,0,ok,377,373,50
0.895,1000,256,0,ok,333,338,42
0.899,1000,256,0,ok,379,410,49
0.912,1000,256,0,ok,329,336,42
0.857,1000,256,0,ok,378,371,48
0.874,1000,256,0,ok,370,372,45
0.872,1000,256,0,ok,412,417,48
0.882,1000,256,0,ok,401,376,49
0.840,1000,256,0,ok,391,367,50
0.874,1000,256,0,ok,335,336,42
0.919,1000,256,0,ok,367,376,48
0.875,1000,256,0,ok,376,363,50
0.861,1000,256,0,ok,383,372,48
0.855,1000,256,0,ok,377,376,49
0.908,1000,256,0,ok,380,372,50
0.843,1000,256,0,ok,871,813,111
0.848,1000,256,0,ok,341,335,44
0.919,1000,256,0,ok,396,333,42
0.869,1000,256,0,ok,377,423,44
0.857,1000,256,0,ok,848,852,107
0.869,1000,256,0,ok,333,336,41
0.889,1000,256,0,ok,376,375,48
0.940,14661,4096,339,ok,5459,7119,1187
0.805,14661,8192,339,ok,7514,5756,1214
0.932,14661,4096,339,ok,5337,6003,1136
0.931,14661,4096,339,ok,5366,6005,1133
0.934,14661,4096,339,ok,5354,6168,1314
0.934,14661,4096,339,ok,5316,6157,1127
0.788,14661,8192,339,ok,7154,5553,1197
0.824,14661,8192,339,ok,6677,5349,1384
0.785,14661,8192,339,ok,6951,5303,1147
0.856,14661,4096,339,ok,5245,6315,1114
0.864,14661,4096,339,ok,5184,6064,1201
