0.940,499,128,1,ok,185,180,23
0.890,499,128,1,ok,188,184,25
0.896,499,128,1,ok,192,177,26
0.842,499,128,1,ok,186,185,25
0.882,499,128,1,ok,188,363,26
0.858,499,128,1,ok,181,186,23
0.745,499,256,1,ok,214,170,25
0.864,499,128,1,ok,284,249,26
0.870,499,128,1,ok,191,185,25
0.884,499,128,1,ok,188,184,24
0.850,499,128,1,ok,187,182,26
0.908,499,128,1,ok,181,185,25
0.936,499,128,1,ok,185,184,24
0.860,499,128,1,ok,278,272,37
0.874,499,128,1,ok,191,187,26
0.922,499,128,1,ok,185,184,24
0.880,499,128,1,ok,273,274,35
0.914,499,128,1,ok,183,175,23
0.916,499,128,1,ok,188,177,24
0.884,499,128,1,ok,184,184,24
0.900,499,128,1,ok,188,176,25
0.926,499,128,1,ok,232,186,25
0.883,1000,256,0,ok,553,556,72
0.897,1000,256,0,ok,333,429,43
0.904,1000,256,0,ok,341,334,46
0.928,1000,256,0,ok,366,372,47
0.883,1000,256,0,ok,563,565,71
0.940,1000,256,0,ok,345,333,42
0.876,1000,256,0,ok,366,323,44
0.877,1000,256,0,ok,334,327,42
0.900,1000,256,0,ok,377,376,48
0.936,1000,256,0,ok,367,375,47
0.932,1000,256,0,ok,367,375,47
0.864,1000,256,0,ok,373,371,50
0.906,1000,256,0,ok,548,555,85
0.876,1000,256,0,ok,388,364,49
0.904,1000,256,0,ok,370,373,48
0.856,1000,256,0,ok,378,375,52
0.926,1000,256,0,ok,377,371,51
0.856,1000,256,0,ok,560,559,74
0.844,1000,256,0,ok,339,336,45
0.754,1000,512,0,ok,422,331,50
0.894,1000,256,0,ok,785,345,42
0.924,1000,256,0,ok,554,545,71
0.898,14661,4096,339,ok,6132,6259,1090
0.781,14661,8192,339,ok,7990,5548,1196
0.866,14661,4096,339,ok,5302,6276,1129
0.834,14661,8192,339,ok,6576,5338,1312
0.790,14661,8192,339,ok,7516,5398,1244
0.785,14661,8192,339,ok,8044,5461,1134
0.858,14661,4096,339,ok,5401,7027,1181
0.814,14661,8192,339,ok,6877,5387,1194
0.837,14661,8192,339,ok,6707,5516,1365
0.849,14661,4096,339,ok,5448,6270,1096
0.766,14661,8192,339,ok,7399,5378,1124
